%YAML 1.1
%TAG !u! tag:unity3d.com,2011:
--- !u!1 &7845001287141962579
GameObject:
  m_ObjectHideFlags: 0
  m_CorrespondingSourceObject: {fileID: 0}
  m_PrefabInstance: {fileID: 0}
  m_PrefabAsset: {fileID: 0}
  serializedVersion: 6
  m_Component:
  - component: {fileID: 7845001287141962576}
  - component: {fileID: 7845001287141962577}
  - component: {fileID: 7845001287141962578}
  m_Layer: 0
  m_Name: Portail
  m_TagString: Untagged
  m_Icon: {fileID: 0}
  m_NavMeshLayer: 0
  m_StaticEditorFlags: 0
  m_IsActive: 1
--- !u!4 &7845001287141962576
Transform:
  m_ObjectHideFlags: 0
  m_CorrespondingSourceObject: {fileID: 0}
  m_PrefabInstance: {fileID: 0}
  m_PrefabAsset: {fileID: 0}
  m_GameObject: {fileID: 7845001287141962579}
  m_LocalRotation: {x: 0, y: 0, z: 0, w: 1}
  m_LocalPosition: {x: 4.28, y: -2.77, z: -0.9980532}
  m_LocalScale: {x: 1, y: 1, z: 1}
  m_Children: []
  m_Father: {fileID: 0}
  m_RootOrder: 0
  m_LocalEulerAnglesHint: {x: 0, y: 0, z: 0}
--- !u!212 &7845001287141962577
SpriteRenderer:
  m_ObjectHideFlags: 0
  m_CorrespondingSourceObject: {fileID: 0}
  m_PrefabInstance: {fileID: 0}
  m_PrefabAsset: {fileID: 0}
  m_GameObject: {fileID: 7845001287141962579}
  m_Enabled: 0
  m_CastShadows: 0
  m_ReceiveShadows: 0
  m_DynamicOccludee: 1
  m_MotionVectors: 1
  m_LightProbeUsage: 1
  m_ReflectionProbeUsage: 1
  m_RayTracingMode: 0
  m_RenderingLayerMask: 1
  m_RendererPriority: 0
  m_Materials:
  - {fileID: 10754, guid: 0000000000000000f000000000000000, type: 0}
  m_StaticBatchInfo:
    firstSubMesh: 0
    subMeshCount: 0
  m_StaticBatchRoot: {fileID: 0}
  m_ProbeAnchor: {fileID: 0}
  m_LightProbeVolumeOverride: {fileID: 0}
  m_ScaleInLightmap: 1
  m_ReceiveGI: 1
  m_PreserveUVs: 0
  m_IgnoreNormalsForChartDetection: 0
  m_ImportantGI: 0
  m_StitchLightmapSeams: 1
  m_SelectedEditorRenderState: 0
  m_MinimumChartSize: 4
  m_AutoUVMaxDistance: 0.5
  m_AutoUVMaxAngle: 89
  m_LightmapParameters: {fileID: 0}
  m_SortingLayerID: 0
  m_SortingLayer: 0
  m_SortingOrder: 0
  m_Sprite: {fileID: 21300000, guid: 8ef25bd53322532488ba4dca30bd3b7a, type: 3}
  m_Color: {r: 1, g: 1, b: 1, a: 1}
  m_FlipX: 0
  m_FlipY: 0
  m_DrawMode: 0
  m_Size: {x: 0.64, y: 0.64}
  m_AdaptiveModeThreshold: 0.5
  m_SpriteTileMode: 0
  m_WasSpriteAssigned: 1
  m_MaskInteraction: 0
  m_SpriteSortPoint: 0
--- !u!114 &7845001287141962578
MonoBehaviour:
  m_ObjectHideFlags: 0
  m_CorrespondingSourceObject: {fileID: 0}
  m_PrefabInstance: {fileID: 0}
  m_PrefabAsset: {fileID: 0}
  m_GameObject: {fileID: 7845001287141962579}
  m_Enabled: 1
  m_EditorHideFlags: 0
  m_Script: {fileID: 11500000, guid: 2f99799bc2b751d44aa5d12cf8481634, type: 3}
  m_Name: 
  m_EditorClassIdentifier: 
  monster: {fileID: 6775106909654143311, guid: d5634f5f3fa782043b923a3f50e6ce39, type: 3}
  monsterList:
  - {fileID: 6775106909654143311, guid: 81a08f820c429224aa26462c6f8c4811, type: 3}
  - {fileID: 6775106909654143311, guid: b5797daefef2e7b45b89ec5f8a4d40ea, type: 3}
  - {fileID: 6775106909654143311, guid: 37d7e02b5ef65944f8d618b07cf3d67d, type: 3}
  - {fileID: 6775106909654143311, guid: 31afe47500629c44d803fbb75796053f, type: 3}
  - {fileID: 6775106909654143311, guid: 9aa08e08f0e6a9949bd3456703986eb6, type: 3}
  - {fileID: 6775106909654143311, guid: 3817fe432ef99e84c9c9e0f0dc508188, type: 3}
  - {fileID: 6775106909654143311, guid: 1446e5b10de6b2c488a0eea681fc7605, type: 3}
  - {fileID: 6775106909654143311, guid: 846b4f04369f5a74790d8eda7758a34e, type: 3}
  - {fileID: 6775106909654143311, guid: 353700019b2db3a47b83ea4d5db188d9, type: 3}
  - {fileID: 6775106909654143311, guid: ed71148c11b89664cbda3d3159796844, type: 3}
  - {fileID: 6775106909654143311, guid: 8a90e658b2c9c6642b9fc3751ef97670, type: 3}
  - {fileID: 6775106909654143311, guid: 5c1402103f82bf648820b047af74e872, type: 3}
  - {fileID: 6775106909654143311, guid: a4cb26b26e7aef7449031547c9e357a5, type: 3}
  - {fileID: 6775106909654143311, guid: 2890725e00d6b874e8dafd1473a39518, type: 3}
  - {fileID: 6775106909654143311, guid: 2199a6fe2ac674248bae099e1c9d532e, type: 3}
  - {fileID: 6775106909654143311, guid: 6e7732269e923ed40a429beb66b53a95, type: 3}
